<?xml version="1.0" encoding="UTF-8" standalone="no"?>
<!-- Created with Inkscape (http://www.inkscape.org/) -->

<svg
   version="1.1"
   id="svg1"
   width="793.70135"
   height="1122.52"
   viewBox="0 0 793.70135 1122.52"
   sodipodi:docname="latex.pdf"
   xmlns:inkscape="http://www.inkscape.org/namespaces/inkscape"
   xmlns:sodipodi="http://sodipodi.sourceforge.net/DTD/sodipodi-0.dtd"
   xmlns="http://www.w3.org/2000/svg"
   xmlns:svg="http://www.w3.org/2000/svg">
  <defs
     id="defs1" />
  <sodipodi:namedview
     id="namedview1"
     pagecolor="#ffffff"
     bordercolor="#000000"
     borderopacity="0.25"
     inkscape:showpageshadow="2"
     inkscape:pageopacity="0.0"
     inkscape:pagecheckerboard="0"
     inkscape:deskcolor="#d1d1d1">
    <inkscape:page
       x="0"
       y="0"
       inkscape:label="1"
       id="page1"
       width="793.70135"
       height="1122.52"
       margin="0"
       bleed="0" />
  </sodipodi:namedview>
  <g
     id="g1"
     inkscape:groupmode="layer"
     inkscape:label="1">
    <g
       id="g2"
       transform="matrix(1.3333333,0,0,1.3333333,186.328,181.01467)">
      <path
         id="path2"
         d="m 6.8204063,-4.4992813 -0.1875,-2.2382812 H 0.550875 l -0.1875,2.2382812 H 0.60946875 C 0.75009375,-6.10475 0.9024375,-6.432875 2.4024375,-6.432875 c 0.1757813,0 0.4335938,0 0.5390625,0.023437 0.2109375,0.035156 0.2109375,0.140625 0.2109375,0.375 v 5.25 c 0,0.33984375 0,0.48046875 -1.0546875,0.48046875 H 1.6993125 v 0.304688 C 2.1094688,-0.0344375 3.129,-0.0344375 3.5860313,-0.0344375 c 0.4570312,0 1.4882812,0 1.8984375,0.03515625 v -0.3046875 H 5.0860313 c -1.0546875,0 -1.0546875,-0.140625 -1.0546875,-0.48046875 v -5.25 c 0,-0.1992188 0,-0.3398438 0.1875,-0.375 0.1054687,-0.023437 0.375,-0.023437 0.5625,-0.023437 1.5,0 1.6523437,0.328125 1.7929687,1.9335937 z M 12.527438,7.1875e-4 v -0.3046875 c -0.515625,0 -0.773438,0 -0.785157,-0.3046875 V -2.5070938 c 0,-0.8554687 0,-1.171875 -0.304687,-1.5234375 -0.140625,-0.1757812 -0.46875,-0.375 -1.042969,-0.375 -0.84375,0 -1.2773437,0.5976563 -1.4414062,0.9609375 v -3.46875 L 7.5118125,-6.807875 v 0.3164062 c 0.703125,0 0.7851563,0.070312 0.7851563,0.5507813 V -0.761 c 0,0.45703125 -0.1171875,0.45703125 -0.7851563,0.45703125 v 0.3046875 l 1.125,-0.03515625 1.1132813,0.03515625 v -0.3046875 c -0.65625,0 -0.7734375,0 -0.7734375,-0.45703125 v -1.828125 c 0,-1.03125 0.7148437,-1.59375 1.3476567,-1.59375 0.621093,0 0.738281,0.5390625 0.738281,1.1015625 V -0.761 c 0,0.45703125 -0.117188,0.45703125 -0.773438,0.45703125 v 0.3046875 l 1.125,-0.03515625 z m 2.663085,0 v -0.3046875 c -0.65625,0 -0.703125,-0.0585938 -0.703125,-0.4453125 V -4.4055313 l -1.394531,0.1171875 v 0.3046875 c 0.65625,0 0.738281,0.058594 0.738281,0.5507813 V -0.761 c 0,0.45703125 -0.105468,0.45703125 -0.773437,0.45703125 v 0.3046875 l 1.101562,-0.03515625 c 0.339844,0 0.691407,0.0234375 1.03125,0.03515625 z M 14.639742,-6.011 c 0,-0.2695313 -0.222656,-0.5273438 -0.527344,-0.5273438 -0.339843,0 -0.539062,0.2695313 -0.539062,0.5273438 0,0.2695312 0.234375,0.5273437 0.527344,0.5273437 0.339843,0 0.539062,-0.28125 0.539062,-0.5273437 z m 4.444336,4.734375 c 0,-0.5273438 -0.292969,-0.8203125 -0.421875,-0.9492188 -0.328125,-0.3164062 -0.714844,-0.3984375 -1.136719,-0.46875 -0.550781,-0.1171875 -1.21875,-0.2460937 -1.21875,-0.8203125 0,-0.3515625 0.257813,-0.7617187 1.113282,-0.7617187 1.101562,0 1.148437,0.9023437 1.171875,1.2070312 0,0.09375 0.117187,0.09375 0.117187,0.09375 0.128906,0 0.128906,-0.046875 0.128906,-0.2460937 v -0.9960938 c 0,-0.1757812 0,-0.2460937 -0.117187,-0.2460937 -0.04687,0 -0.07031,0 -0.199219,0.1171875 -0.02344,0.046875 -0.128906,0.1289062 -0.164062,0.1640625 -0.375,-0.28125 -0.785157,-0.28125 -0.9375,-0.28125 -1.21875,0 -1.59375,0.6679687 -1.59375,1.2304687 0,0.3398438 0.164062,0.6210938 0.433593,0.84375 0.316407,0.2578125 0.597657,0.3164063 1.3125,0.4570313 0.222657,0.035156 1.03125,0.1992187 1.03125,0.9140625 0,0.515625 -0.351562,0.9140625 -1.125,0.9140625 -0.832031,0 -1.195312,-0.57421875 -1.382812,-1.4179688 C 16.060641,-1.651625 16.060641,-1.6985 15.955172,-1.6985 c -0.128906,0 -0.128906,0.070312 -0.128906,0.2578125 v 1.3125 c 0,0.1640625 0,0.234375 0.105468,0.234375 0.05859,0 0.07031,0 0.257813,-0.19921875 0.01172,-0.01171875 0.01172,-0.03515625 0.199219,-0.22265625 0.433593,0.421875 0.878906,0.421875 1.089843,0.421875 1.148438,0 1.605469,-0.66796875 1.605469,-1.3828125 z m 6.123047,1.27734375 v -0.3046875 c -0.65625,0 -0.703125,-0.0585938 -0.703125,-0.4453125 V -4.4055313 l -1.394531,0.1171875 v 0.3046875 c 0.65625,0 0.738281,0.058594 0.738281,0.5507813 V -0.761 c 0,0.45703125 -0.105469,0.45703125 -0.773437,0.45703125 v 0.3046875 l 1.101562,-0.03515625 c 0.339844,0 0.691406,0.0234375 1.03125,0.03515625 z M 24.656344,-6.011 c 0,-0.2695313 -0.222656,-0.5273438 -0.527344,-0.5273438 -0.339844,0 -0.539062,0.2695313 -0.539062,0.5273438 0,0.2695312 0.234375,0.5273437 0.527343,0.5273437 0.339844,0 0.539063,-0.28125 0.539063,-0.5273437 z m 4.441406,4.734375 c 0,-0.5273438 -0.292969,-0.8203125 -0.421875,-0.9492188 -0.328125,-0.3164062 -0.714844,-0.3984375 -1.136719,-0.46875 -0.550781,-0.1171875 -1.21875,-0.2460937 -1.21875,-0.8203125 0,-0.3515625 0.257813,-0.7617187 1.113282,-0.7617187 1.101562,0 1.148437,0.9023437 1.171875,1.2070312 0,0.09375 0.117187,0.09375 0.117187,0.09375 0.128906,0 0.128906,-0.046875 0.128906,-0.2460937 v -0.9960938 c 0,-0.1757812 0,-0.2460937 -0.117187,-0.2460937 -0.04687,0 -0.07031,0 -0.199219,0.1171875 -0.02344,0.046875 -0.128906,0.1289062 -0.164062,0.1640625 -0.375,-0.28125 -0.785157,-0.28125 -0.9375,-0.28125 -1.21875,0 -1.59375,0.6679687 -1.59375,1.2304687 0,0.3398438 0.164062,0.6210938 0.433593,0.84375 0.316407,0.2578125 0.597657,0.3164063 1.3125,0.4570313 0.222657,0.035156 1.03125,0.1992187 1.03125,0.9140625 0,0.515625 -0.351562,0.9140625 -1.125,0.9140625 -0.832031,0 -1.195312,-0.57421875 -1.382812,-1.4179688 C 26.074313,-1.651625 26.074313,-1.6985 25.968844,-1.6985 c -0.128906,0 -0.128906,0.070312 -0.128906,0.2578125 v 1.3125 c 0,0.1640625 0,0.234375 0.105468,0.234375 0.05859,0 0.07031,0 0.257813,-0.19921875 0.01172,-0.01171875 0.01172,-0.03515625 0.199219,-0.22265625 0.433593,0.421875 0.878906,0.421875 1.089843,0.421875 1.148438,0 1.605469,-0.66796875 1.605469,-1.3828125 z m 8.478516,0.38671875 V -1.4406875 h -0.257813 v 0.55078125 c 0,0.5859375 -0.246094,0.64453125 -0.351562,0.64453125 -0.328125,0 -0.375,-0.45703125 -0.375,-0.50390625 V -2.7414688 c 0,-0.4101562 0,-0.8085937 -0.351563,-1.171875 -0.386719,-0.3867187 -0.890625,-0.5507812 -1.371094,-0.5507812 -0.808593,0 -1.5,0.46875 -1.5,1.125 0,0.3046875 0.199219,0.46875 0.457032,0.46875 0.28125,0 0.457031,-0.1992188 0.457031,-0.4570313 0,-0.1171875 -0.04687,-0.4453125 -0.503906,-0.4570312 0.269531,-0.3515625 0.75,-0.4570313 1.078125,-0.4570313 0.480468,0 1.054687,0.3867188 1.054687,1.2773438 v 0.3632812 c -0.515625,0.035156 -1.207031,0.058594 -1.839844,0.3632813 -0.75,0.3398437 -0.996093,0.8554687 -0.996093,1.2890625 0,0.80859375 0.972656,1.0546875 1.59375,1.0546875 0.65625,0 1.113281,-0.3984375 1.3125,-0.8671875 0.03516,0.3984375 0.304687,0.8203125 0.773437,0.8203125 0.210938,0 0.820313,-0.140625 0.820313,-0.94921875 z M 35.912203,-1.3938125 c 0,0.94921875 -0.726562,1.2890625 -1.171875,1.2890625 -0.480469,0 -0.890625,-0.3515625 -0.890625,-0.85546875 0,-0.53906255 0.410156,-1.37109375 2.0625,-1.42968755 z m 10.957031,-1.171875 h -0.257812 c -0.105469,1.0078125 -0.246094,2.26171875 -1.992188,2.26171875 h -0.820312 c -0.46875,0 -0.492188,-0.0703125 -0.492188,-0.3984375 V -6.011 c 0,-0.3398438 0,-0.4804688 0.949219,-0.4804688 h 0.328125 V -6.807875 c -0.363281,0.035156 -1.265625,0.035156 -1.675781,0.035156 -0.386719,0 -1.160156,0 -1.511719,-0.035156 v 0.3164062 h 0.234375 c 0.773438,0 0.796875,0.1054688 0.796875,0.46875 v 5.25000005 c 0,0.3515625 -0.02344,0.46875 -0.796875,0.46875 h -0.234375 v 0.3046875 h 5.191406 z m 0,0"
         style="fill:#000000;fill-opacity:1;fill-rule:nonzero;stroke:none" />
      <path
         id="path3"
         d="m 49.262789,-2.0588516 v -0.2460937 h -0.140625 c -0.46875,0 -0.515625,-0.070312 -0.585937,-0.2695313 l -1.699219,-4.3007812 c -0.03516,-0.1054688 -0.05859,-0.1523438 -0.199219,-0.1523438 -0.128906,0 -0.152344,0.046875 -0.1875,0.1523438 l -1.617187,4.0898437 c -0.07031,0.1640625 -0.1875,0.4804688 -0.808594,0.4804688 v 0.2460937 c 0.234375,-0.023437 0.480469,-0.023437 0.714844,-0.023437 0.28125,0 0.796875,0.023437 0.832031,0.023437 v -0.2460937 c -0.304688,0 -0.492188,-0.140625 -0.492188,-0.3398438 0,-0.058594 0,-0.070312 0.03516,-0.140625 l 0.328125,-0.8554687 h 1.980468 l 0.410157,1.0195312 c 0.01172,0.035156 0.03516,0.082031 0.03516,0.1171875 0,0.1992188 -0.386719,0.1992188 -0.574219,0.1992188 v 0.2460937 l 1.042969,-0.023437 c 0.328125,0 0.855469,0.011719 0.925781,0.023437 z m -1.933594,-1.828125 h -1.792968 l 0.902343,-2.2734375 z m 0,0"
         style="fill:#000000;fill-opacity:1;fill-rule:nonzero;stroke:none" />
      <path
         id="path4"
         d="m 54.914156,-4.4992813 -0.1875,-2.2382812 h -6.082031 l -0.1875,2.2382812 h 0.246094 c 0.140625,-1.6054687 0.292969,-1.9335937 1.792969,-1.9335937 0.175781,0 0.433593,0 0.539062,0.023437 0.210938,0.035156 0.210938,0.140625 0.210938,0.375 v 5.25 c 0,0.33984375 0,0.48046875 -1.054688,0.48046875 H 49.793063 V 7.1825e-4 C 50.203219,-0.034438 51.22275,-0.034438 51.679781,-0.034438 c 0.457032,0 1.488282,0 1.898438,0.03515625 v -0.3046875 h -0.398438 c -1.054687,0 -1.054687,-0.140625 -1.054687,-0.48046875 v -5.25 c 0,-0.1992188 0,-0.3398438 0.1875,-0.375 0.105469,-0.023437 0.375,-0.023437 0.5625,-0.023437 1.5,0 1.652344,0.328125 1.792969,1.9335937 z m 5.206055,4.07812505 H 59.874117 C 59.628023,1.114 59.393648,1.8405625 57.682711,1.8405625 h -1.324219 c -0.46875,0 -0.492187,-0.070312 -0.492187,-0.3984375 v -2.6601563 h 0.902343 c 0.960938,0 1.078125,0.3164063 1.078125,1.1601563 h 0.246094 v -2.6367188 h -0.246094 c 0,0.8554688 -0.117187,1.1601563 -1.078125,1.1601563 h -0.902343 v -2.390625 c 0,-0.328125 0.02344,-0.3984375 0.492187,-0.3984375 h 1.289063 c 1.523437,0 1.792968,0.5507812 1.945312,1.9335937 h 0.246094 L 59.56943,-4.6281875 H 53.956148 V -4.3235 h 0.234375 c 0.773438,0 0.796875,0.1171875 0.796875,0.46875 v 5.2265625 c 0,0.3515625 -0.02344,0.46875 -0.796875,0.46875 H 53.956148 V 2.14525 h 5.753907 z m 6.275391,0.421875 v -0.3046875 h -0.1875 c -0.515625,0 -0.726563,-0.0585938 -0.9375,-0.36328125 l -2.097657,-3.1757813 1.359375,-2.0039062 c 0.222657,-0.3164063 0.5625,-0.6328125 1.441407,-0.6445313 V -6.807875 l -1.101563,0.035156 c -0.398437,0 -0.878906,0 -1.277344,-0.035156 v 0.3164062 c 0.398438,0.011719 0.621094,0.2226563 0.621094,0.4570313 0,0.09375 -0.02344,0.1171875 -0.09375,0.2226562 l -1.136719,1.6875 -1.277343,-1.921875 c -0.02344,-0.035156 -0.07031,-0.1054687 -0.07031,-0.1523437 0,-0.1171875 0.222656,-0.28125 0.644531,-0.2929688 V -6.807875 c -0.351562,0.035156 -1.078125,0.035156 -1.453125,0.035156 l -1.300781,-0.035156 v 0.3164062 h 0.199219 c 0.539062,0 0.738281,0.070312 0.925781,0.3515625 l 1.828125,2.765625 -1.628906,2.41406255 c -0.140625,0.19921875 -0.445313,0.65625 -1.453125,0.65625 v 0.3046875 l 1.113281,-0.03515625 c 0.363281,0 0.914063,0 1.277344,0.03515625 v -0.3046875 C 61.321383,-0.3156875 61.15732,-0.58521875 61.15732,-0.761 c 0,-0.09375 0.03516,-0.140625 0.105469,-0.2460938 l 1.40625,-2.0859375 1.582031,2.3789063 c 0.01172,0.0351563 0.04687,0.0820313 0.04687,0.10546875 0,0.1171875 -0.222656,0.29296875 -0.644531,0.3046875 V 7.1875e-4 C 63.993258,-0.0344375 64.71982,-0.0344375 65.106539,-0.0344375 Z M 73.25693,-1.22975 v -0.5742188 h -0.246094 v 0.5507813 c 0,0.73828125 -0.304688,1.11328125 -0.667969,1.11328125 -0.667969,0 -0.667969,-0.90234375 -0.667969,-1.07812505 v -2.765625 h 1.429688 v -0.3046875 h -1.429688 v -1.8398437 h -0.246093 c -0.01172,0.8203125 -0.316407,1.8867187 -1.289063,1.921875 v 0.2226562 h 0.84375 V -1.22975 c 0,1.21875 0.925781,1.3359375 1.289063,1.3359375 0.703125,0 0.984375,-0.703125 0.984375,-1.3359375 z m 4.708008,0.046875 c 0,-0.1054688 -0.08203,-0.1171875 -0.128907,-0.1171875 -0.09375,0 -0.117187,0.058594 -0.128906,0.140625 -0.351562,1.01953125 -1.253906,1.01953125 -1.347656,1.01953125 -0.503906,0 -0.902344,-0.29296875 -1.125,-0.66796875 -0.304688,-0.4804688 -0.304688,-1.1367188 -0.304688,-1.4882813 h 2.789063 c 0.210937,0 0.246094,0 0.246094,-0.2109375 0,-0.984375 -0.539063,-1.9570312 -1.78125,-1.9570312 -1.160157,0 -2.074219,1.03125 -2.074219,2.2734375 0,1.3359375 1.042969,2.296875 2.191406,2.296875 1.21875,0 1.664063,-1.1015625 1.664063,-1.2890625 z m -0.65625,-1.3242188 H 74.9415 c 0.05859,-1.4882812 0.902344,-1.734375 1.242188,-1.734375 1.019531,0 1.125,1.3476563 1.125,1.734375 z m 4.532226,1.2304688 c 0,-0.5273438 -0.292969,-0.8203125 -0.421875,-0.9492188 -0.328125,-0.3164062 -0.714844,-0.3984375 -1.136719,-0.46875 -0.550781,-0.1171875 -1.21875,-0.2460937 -1.21875,-0.8203125 0,-0.3515625 0.257813,-0.7617187 1.113282,-0.7617187 1.101562,0 1.148437,0.9023437 1.171875,1.2070312 0,0.09375 0.117187,0.09375 0.117187,0.09375 0.128906,0 0.128906,-0.046875 0.128906,-0.2460937 v -0.9960938 c 0,-0.1757812 0,-0.2460937 -0.117187,-0.2460937 -0.04687,0 -0.07031,0 -0.199219,0.1171875 -0.02344,0.046875 -0.128906,0.1289062 -0.164062,0.1640625 -0.375,-0.28125 -0.785157,-0.28125 -0.9375,-0.28125 -1.21875,0 -1.59375,0.6679687 -1.59375,1.2304687 0,0.3398438 0.164062,0.6210938 0.433593,0.84375 0.316407,0.2578125 0.597657,0.3164063 1.3125,0.4570313 0.222657,0.035156 1.03125,0.1992187 1.03125,0.9140625 0,0.515625 -0.351562,0.9140625 -1.125,0.9140625 -0.832031,0 -1.195312,-0.57421875 -1.382812,-1.4179688 C 78.817477,-1.651625 78.817477,-1.6985 78.712008,-1.6985 c -0.128906,0 -0.128906,0.070312 -0.128906,0.2578125 v 1.3125 c 0,0.1640625 0,0.234375 0.105468,0.234375 0.05859,0 0.07031,0 0.257813,-0.19921875 0.01172,-0.01171875 0.01172,-0.03515625 0.199219,-0.22265625 0.433593,0.421875 0.878906,0.421875 1.089843,0.421875 1.148438,0 1.605469,-0.66796875 1.605469,-1.3828125 z m 3.650391,0.046875 v -0.5742188 h -0.246094 v 0.5507813 c 0,0.73828125 -0.304688,1.11328125 -0.667969,1.11328125 -0.667969,0 -0.667969,-0.90234375 -0.667969,-1.07812505 v -2.765625 h 1.429688 V -4.2883438 H 83.909273 V -6.1281875 H 83.66318 c -0.01172,0.8203125 -0.316407,1.8867187 -1.289063,1.921875 v 0.2226562 h 0.84375 V -1.22975 c 0,1.21875 0.925781,1.3359375 1.289063,1.3359375 0.703125,0 0.984375,-0.703125 0.984375,-1.3359375 z m 9.146484,1.23046875 v -0.3046875 c -0.667969,0 -0.773437,0 -0.773437,-0.45703125 v -3.65625 l -1.253907,0.09375 c -0.164062,0.011719 -0.1875,0.023437 -0.1875,0.023437 -0.01172,0.011719 -0.03516,0.011719 -0.175781,0.011719 h -1.171875 v -1.125 c 0,-0.9960937 0.855469,-1.3945312 1.464844,-1.3945312 0.304687,0 0.667969,0.1054687 0.867187,0.328125 -0.410156,0.023437 -0.46875,0.3046875 -0.46875,0.46875 0,0.328125 0.257813,0.4570312 0.445313,0.4570312 0.222656,0 0.457031,-0.1640625 0.457031,-0.4570312 0,-0.5976563 -0.550781,-1.0078125 -1.289062,-1.0078125 -0.925782,0 -2.109375,0.5039062 -2.109375,1.59375 V -4.288344 H 89.65732 v 0.3046875 h 0.785157 V -0.761 c 0,0.45703125 -0.105469,0.45703125 -0.773438,0.45703125 v 0.3046875 l 1.101563,-0.03515625 1.113281,0.03515625 v -0.3046875 c -0.667969,0 -0.785156,0 -0.785156,-0.45703125 v -3.2226563 h 1.582031 c 0.457031,0 0.527344,0.1289063 0.527344,0.5390625 V -0.761 c 0,0.45703125 -0.117188,0.45703125 -0.785157,0.45703125 v 0.3046875 l 1.113282,-0.03515625 z m 2.818359,0 v -0.3046875 c -0.667968,0 -0.785156,0 -0.785156,-0.45703125 v -6.1523438 l -1.429687,0.1054688 v 0.3164062 c 0.703125,0 0.773437,0.070312 0.773437,0.5507813 V -0.761 c 0,0.45703125 -0.105469,0.45703125 -0.773437,0.45703125 V 7.1875e-4 L 96.342867,-0.0344375 Z M 101.81845,-1.182875 c 0,-0.1054688 -0.082,-0.1171875 -0.1289,-0.1171875 -0.0937,0 -0.11719,0.058594 -0.12891,0.140625 -0.35156,1.01953125 -1.25391,1.01953125 -1.34766,1.01953125 -0.503902,0 -0.902339,-0.29296875 -1.124996,-0.66796875 -0.304687,-0.4804688 -0.304687,-1.1367188 -0.304687,-1.4882813 h 2.789063 c 0.21094,0 0.24609,0 0.24609,-0.2109375 0,-0.984375 -0.53906,-1.9570312 -1.78125,-1.9570312 -1.160153,0 -2.074216,1.03125 -2.074216,2.2734375 0,1.3359375 1.042969,2.296875 2.191406,2.296875 1.21875,0 1.66406,-1.1015625 1.66406,-1.2890625 z m -0.65625,-1.3242188 h -2.367184 c 0.05859,-1.4882812 0.902343,-1.734375 1.242184,-1.734375 1.01953,0 1.125,1.3476563 1.125,1.734375 z m 11.28223,-1.4765625 v -0.3046875 c -0.22266,0.011719 -0.51563,0.023437 -0.72656,0.023437 l -0.9375,-0.023437 v 0.3046875 c 0.36328,0.011719 0.58593,0.1875 0.58593,0.4804688 0,0.058594 0,0.082031 -0.0469,0.2109375 l -0.91406,2.54296875 -0.98438,-2.77734375 c -0.0352,-0.1171875 -0.0469,-0.140625 -0.0469,-0.1875 0,-0.2695313 0.38672,-0.2695313 0.58593,-0.2695313 v -0.3046875 l -1.03125,0.023437 c -0.30468,0 -0.59765,-0.011719 -0.89062,-0.023437 v 0.3046875 c 0.36328,0 0.52734,0.023437 0.62109,0.1523438 0.0586,0.058594 0.16407,0.3515625 0.23438,0.5390625 l -0.85547,2.4140625 -0.94922,-2.6601563 c -0.0469,-0.1171875 -0.0469,-0.140625 -0.0469,-0.1757812 0,-0.2695313 0.38671,-0.2695313 0.58593,-0.2695313 v -0.3046875 l -1.08984,0.023437 -0.92578,-0.023437 v 0.3046875 c 0.5039,0 0.62109,0.035156 0.73828,0.3515625 l 1.25391,3.5273438 c 0.0586,0.140625 0.082,0.2109375 0.21093,0.2109375 0.12891,0 0.15235,-0.05859375 0.19922,-0.19921875 l 1.00781,-2.81250005 1.01954,2.8242188 c 0.0352,0.1171875 0.0703,0.1875 0.19921,0.1875 0.12891,0 0.15235,-0.08203125 0.19922,-0.1875 l 1.16016,-3.2695313 c 0.17578,-0.4921875 0.49219,-0.6210937 0.84375,-0.6328125 z m 2.64844,3.98437505 v -0.3046875 c -0.65625,0 -0.70313,-0.0585938 -0.70313,-0.4453125 V -4.4055313 l -1.39453,0.1171875 v 0.3046875 c 0.65625,0 0.73828,0.058594 0.73828,0.5507813 V -0.761 c 0,0.45703125 -0.10547,0.45703125 -0.77344,0.45703125 v 0.3046875 l 1.10157,-0.03515625 c 0.33984,0 0.6914,0.0234375 1.03125,0.03515625 z M 114.54209,-6.011 c 0,-0.2695313 -0.22266,-0.5273438 -0.52735,-0.5273438 -0.33984,0 -0.53906,0.2695313 -0.53906,0.5273438 0,0.2695312 0.23437,0.5273437 0.52734,0.5273437 0.33985,0 0.53907,-0.28125 0.53907,-0.5273437 z m 4.16308,4.78125 v -0.5742188 h -0.24609 v 0.5507813 c 0,0.73828125 -0.30469,1.11328125 -0.66797,1.11328125 -0.66797,0 -0.66797,-0.90234375 -0.66797,-1.07812505 v -2.765625 h 1.42969 v -0.3046875 h -1.42969 v -1.8398437 h -0.24609 c -0.0117,0.8203125 -0.31641,1.8867187 -1.28907,1.921875 v 0.2226562 h 0.84375 V -1.22975 c 0,1.21875 0.92579,1.3359375 1.28907,1.3359375 0.70312,0 0.98437,-0.703125 0.98437,-1.3359375 z m 5.90039,1.23046875 v -0.3046875 c -0.51562,0 -0.77343,0 -0.78515,-0.3046875 V -2.5070938 c 0,-0.8554687 0,-1.171875 -0.30469,-1.5234375 -0.14063,-0.1757812 -0.46875,-0.375 -1.04297,-0.375 -0.84375,0 -1.27734,0.5976563 -1.44141,0.9609375 v -3.46875 l -1.4414,0.1054688 v 0.3164062 c 0.70312,0 0.78515,0.070312 0.78515,0.5507813 V -0.761 c 0,0.45703125 -0.11718,0.45703125 -0.78515,0.45703125 v 0.3046875 l 1.125,-0.03515625 1.11328,0.03515625 v -0.3046875 c -0.65625,0 -0.77344,0 -0.77344,-0.45703125 v -1.828125 c 0,-1.03125 0.71485,-1.59375 1.34766,-1.59375 0.62109,0 0.73828,0.5390625 0.73828,1.1015625 V -0.761 c 0,0.45703125 -0.11719,0.45703125 -0.77344,0.45703125 v 0.3046875 l 1.125,-0.03515625 z m 8.33789,-0.890625 V -1.4406875 h -0.25781 v 0.55078125 c 0,0.5859375 -0.24609,0.64453125 -0.35156,0.64453125 -0.32813,0 -0.375,-0.45703125 -0.375,-0.50390625 V -2.7414688 c 0,-0.4101562 0,-0.8085937 -0.35156,-1.171875 -0.38672,-0.3867187 -0.89063,-0.5507812 -1.3711,-0.5507812 -0.80859,0 -1.5,0.46875 -1.5,1.125 0,0.3046875 0.19922,0.46875 0.45703,0.46875 0.28125,0 0.45703,-0.1992188 0.45703,-0.4570313 0,-0.1171875 -0.0469,-0.4453125 -0.5039,-0.4570312 0.26953,-0.3515625 0.75,-0.4570313 1.07812,-0.4570313 0.48047,0 1.05469,0.3867188 1.05469,1.2773438 v 0.3632812 c -0.51562,0.035156 -1.20703,0.058594 -1.83984,0.3632813 -0.75,0.3398437 -0.9961,0.8554687 -0.9961,1.2890625 0,0.80859375 0.97266,1.0546875 1.59375,1.0546875 0.65625,0 1.11328,-0.3984375 1.3125,-0.8671875 0.0352,0.3984375 0.30469,0.8203125 0.77344,0.8203125 0.21094,0 0.82031,-0.140625 0.82031,-0.94921875 z m -1.66406,-0.50390625 c 0,0.94921875 -0.72656,1.2890625 -1.17187,1.2890625 -0.48047,0 -0.89063,-0.3515625 -0.89063,-0.85546875 0,-0.53906255 0.41016,-1.37109375 2.0625,-1.42968755 z m 8.69824,-4.9335938 c 0,-0.3632812 -0.36328,-0.6914062 -0.89062,-0.6914062 -0.70313,0 -1.54688,0.5273437 -1.54688,1.5820312 v 1.1484375 h -0.78515 v 0.3046875 h 0.78515 V -0.761 c 0,0.45703125 -0.10547,0.45703125 -0.77343,0.45703125 v 0.3046875 l 1.13671,-0.03515625 c 0.39844,0 0.86719,0 1.26563,0.03515625 v -0.3046875 h -0.21094 c -0.73828,0 -0.76172,-0.1171875 -0.76172,-0.46875 V -3.9836563 h 1.13672 v -0.3046875 h -1.16015 V -5.4485 c 0,-0.8789063 0.48046,-1.359375 0.91406,-1.359375 0.0352,0 0.17578,0 0.32812,0.070312 -0.11718,0.046875 -0.29297,0.1757812 -0.29297,0.421875 0,0.234375 0.15235,0.4335937 0.42188,0.4335937 0.29297,0 0.43359,-0.1992187 0.43359,-0.445312 z m 4.18067,4.1953125 c 0,-1.2773437 -0.9961,-2.3320312 -2.19141,-2.3320312 -1.25391,0 -2.21484,1.0898437 -2.21484,2.3320312 0,1.28906255 1.03125,2.2382813 2.20312,2.2382813 1.20703,0 2.20313,-0.97265625 2.20313,-2.2382813 z m -0.82032,-0.082031 c 0,0.3632812 0,0.9023437 -0.22265,1.3359375 -0.22266,0.4453125 -0.65625,0.73828125 -1.14844,0.73828125 -0.43359,0 -0.86719,-0.2109375 -1.13672,-0.66796875 -0.25781,-0.4335938 -0.25781,-1.0429688 -0.25781,-1.40625 0,-0.3867188 0,-0.9257813 0.24609,-1.359375 0.26953,-0.4570313 0.73828,-0.6679688 1.13672,-0.6679688 0.4336,0 0.86719,0.2226563 1.125,0.6445313 0.25781,0.4335937 0.25781,1.0078125 0.25781,1.3828125 z m 4.73438,-1.5820313 c 0,-0.3164062 -0.30469,-0.609375 -0.72656,-0.609375 -0.73828,0 -1.08985,0.6679688 -1.23047,1.1015625 v -1.1015625 l -1.38281,0.1171875 v 0.3046875 c 0.6914,0 0.77343,0.070312 0.77343,0.5625 V -0.761 c 0,0.45703125 -0.10547,0.45703125 -0.77343,0.45703125 v 0.3046875 l 1.13671,-0.03515625 c 0.39844,0 0.86719,0 1.26563,0.03515625 v -0.3046875 h -0.21094 c -0.73828,0 -0.76172,-0.1171875 -0.76172,-0.46875 V -2.307875 c 0,-0.984375 0.42188,-1.875 1.1836,-1.875 0.0586,0 0.082,0 0.10547,0.011719 -0.0352,0.011719 -0.23438,0.1289063 -0.23438,0.3867188 0,0.28125 0.21094,0.4335937 0.43359,0.4335937 0.17579,0 0.42188,-0.1289062 0.42188,-0.4453126 z m 8.37891,3.79687505 v -0.3046875 c -0.51563,0 -0.76172,0 -0.77344,-0.3046875 V -2.5070938 c 0,-0.8554687 0,-1.171875 -0.31641,-1.5234375 -0.1289,-0.1757812 -0.46875,-0.375 -1.04297,-0.375 -0.83203,0 -1.27734,0.5976563 -1.4414,0.984375 -0.14063,-0.8671875 -0.87891,-0.984375 -1.32422,-0.984375 -0.72656,0 -1.19531,0.4335938 -1.47656,1.0546875 v -1.0546875 l -1.40625,0.1171875 v 0.3046875 c 0.70312,0 0.78515,0.070312 0.78515,0.5625 V -0.761 c 0,0.45703125 -0.11719,0.45703125 -0.78515,0.45703125 v 0.3046875 l 1.125,-0.03515625 1.11328,0.03515625 v -0.3046875 c -0.65625,0 -0.77344,0 -0.77344,-0.45703125 v -1.828125 c 0,-1.03125 0.71484,-1.59375 1.34766,-1.59375 0.62109,0 0.73828,0.5390625 0.73828,1.1015625 V -0.761 c 0,0.45703125 -0.11719,0.45703125 -0.77344,0.45703125 v 0.3046875 l 1.125,-0.03515625 1.11328,0.03515625 v -0.3046875 c -0.66797,0 -0.78516,0 -0.78516,-0.45703125 v -1.828125 c 0,-1.03125 0.71485,-1.59375 1.34766,-1.59375 0.63281,0 0.73828,0.5390625 0.73828,1.1015625 V -0.761 c 0,0.45703125 -0.10547,0.45703125 -0.77344,0.45703125 v 0.3046875 l 1.125,-0.03515625 z m 5.25878,0 v -0.3046875 c -0.70312,0 -0.78515,-0.0703125 -0.78515,-0.5625 V -4.4055313 l -1.45313,0.1171875 v 0.3046875 c 0.69141,0 0.77344,0.070312 0.77344,0.5625 v 1.7695313 c 0,0.8671875 -0.48047,1.546875 -1.20703,1.546875 -0.83203,0 -0.87891,-0.46875 -0.87891,-0.9960938 v -3.3046875 l -1.46484,0.1171875 v 0.3046875 c 0.78516,0 0.78516,0.035156 0.78516,0.9140625 v 1.5 c 0,0.77343755 0,1.6757813 1.51171,1.6757813 0.55079,0 0.9961,-0.26953125 1.27735,-0.890625 v 0.890625 z m 2.74512,0 v -0.3046875 c -0.66797,0 -0.78515,0 -0.78515,-0.45703125 v -6.1523438 l -1.42969,0.1054688 v 0.3164062 c 0.70312,0 0.77344,0.070312 0.77344,0.5507813 V -0.761 c 0,0.45703125 -0.10547,0.45703125 -0.77344,0.45703125 v 0.3046875 l 1.10156,-0.03515625 z m 5.04199,-0.890625 V -1.4406875 h -0.25781 v 0.55078125 c 0,0.5859375 -0.24609,0.64453125 -0.35156,0.64453125 -0.32813,0 -0.375,-0.45703125 -0.375,-0.50390625 V -2.7414688 c 0,-0.4101562 0,-0.8085937 -0.35156,-1.171875 -0.38672,-0.3867187 -0.89063,-0.5507812 -1.3711,-0.5507812 -0.80859,0 -1.5,0.46875 -1.5,1.125 0,0.3046875 0.19922,0.46875 0.45703,0.46875 0.28125,0 0.45704,-0.1992188 0.45704,-0.4570313 0,-0.1171875 -0.0469,-0.4453125 -0.50391,-0.4570312 0.26953,-0.3515625 0.75,-0.4570313 1.07812,-0.4570313 0.48047,0 1.05469,0.3867188 1.05469,1.2773438 v 0.3632812 c -0.51562,0.035156 -1.20703,0.058594 -1.83984,0.3632813 -0.75,0.3398437 -0.9961,0.8554687 -0.9961,1.2890625 0,0.80859375 0.97266,1.0546875 1.59375,1.0546875 0.65625,0 1.11329,-0.3984375 1.3125,-0.8671875 0.0352,0.3984375 0.30469,0.8203125 0.77344,0.8203125 0.21094,0 0.82031,-0.140625 0.82031,-0.94921855 z M 167.8331,-1.3938125 c 0,0.94921875 -0.72656,1.2890625 -1.17187,1.2890625 -0.48047,0 -0.89063,-0.3515625 -0.89063,-0.85546875 0,-0.53906255 0.41016,-1.37109375 2.0625,-1.42968755 z M 171.57138,-3.761 c 0,-0.2929688 -0.23437,-0.5273438 -0.52734,-0.5273438 -0.28125,0 -0.52734,0.234375 -0.52734,0.5273438 0,0.28125 0.24609,0.5273437 0.52734,0.5273437 0.29297,0 0.52734,-0.2460937 0.52734,-0.5273437 z m 0,3.234375 c 0,-0.29296875 -0.23437,-0.5273438 -0.52734,-0.5273438 -0.28125,0 -0.52734,0.23437505 -0.52734,0.5273438 0,0.29296875 0.24609,0.52734375 0.52734,0.52734375 0.29297,0 0.52734,-0.234375 0.52734,-0.52734375 z m 0,0"
         style="fill:#000000;fill-opacity:1;fill-rule:nonzero;stroke:none" />
      <path
         id="path5"
         d="m 182.03916,-4.9182266 c 0,-0.09375 -0.0937,-0.09375 -0.11719,-0.09375 -0.0937,0 -0.10547,0.035156 -0.15234,0.2226563 -0.082,0.328125 -0.21094,0.7382812 -0.50391,0.7382812 -0.1875,0 -0.23438,-0.1523437 -0.23438,-0.3398437 0,-0.1171875 0.0586,-0.3632813 0.10547,-0.5507813 l 0.15235,-0.6210937 c 0.0703,-0.2578125 0.082,-0.3046875 0.14062,-0.5390625 0.0469,-0.1757813 0.12891,-0.5039063 0.12891,-0.5390625 0,-0.1523438 -0.12891,-0.2226563 -0.2461,-0.2226563 -0.11718,0 -0.26953,0.082031 -0.3164,0.28125 -0.14063,-0.234375 -0.38672,-0.4101562 -0.71485,-0.4101562 -0.89062,0 -1.80468,0.9726562 -1.80468,1.9804687 0,0.6796875 0.45703,1.1601563 1.05468,1.1601563 0.375,0 0.71485,-0.2109375 0.9961,-0.4921875 0.1289,0.421875 0.52734,0.4921875 0.71484,0.4921875 0.2461,0 0.42188,-0.1523438 0.55078,-0.375 0.15235,-0.2695313 0.2461,-0.6679688 0.2461,-0.6914063 z m -1.16016,-1.1835937 -0.32812,1.3125 c -0.0469,0.1875 -0.19922,0.328125 -0.35157,0.4570312 -0.0703,0.058594 -0.33984,0.28125 -0.64453,0.28125 -0.25781,0 -0.51562,-0.1757812 -0.51562,-0.6679687 0,-0.375 0.21093,-1.1367188 0.36328,-1.4179688 0.32812,-0.5625 0.67969,-0.6679687 0.8789,-0.6679687 0.48047,0 0.6211,0.5273437 0.6211,0.609375 0,0.023437 -0.0117,0.082031 -0.0234,0.09375 z m 0,0"
         style="fill:#000000;fill-opacity:1;fill-rule:nonzero;stroke:none" />
    </g>
    <path
       id="path6"
       d="M 0,0 H 4.321"
       style="fill:none;stroke:#000000;stroke-width:0.398;stroke-linecap:butt;stroke-linejoin:miter;stroke-miterlimit:10;stroke-dasharray:none;stroke-opacity:1"
       transform="matrix(1.3333333,0,0,-1.3333333,423.736,177.69333)" />
    <g
       id="g6"
       transform="matrix(1.3333333,0,0,1.3333333,424.28133,185.596)">
      <path
         id="path7"
         d="m 3.2811875,-1.9089141 c 0,-0.8203125 -0.5625,-1.1601562 -1.0429687,-1.1601562 -0.3632813,0 -0.6679688,0.1992187 -0.8789063,0.375 l 0.4804688,-1.9335938 c 0.011719,-0.011719 0.023437,-0.1171875 0.023437,-0.1171875 0,-0.035156 -0.023437,-0.09375 -0.1054688,-0.09375 -0.140625,0 -0.7148437,0.058594 -0.890625,0.070312 -0.0585938,0.011719 -0.15234375,0.011719 -0.15234375,0.1640625 0,0.09375 0.09375,0.09375 0.17578125,0.09375 0.3398438,0 0.3398438,0.046875 0.3398438,0.1054688 0,0.046875 -0.070312,0.328125 -0.1171875,0.4921875 l -0.1523438,0.6328125 -0.46875,1.8632812 c -0.0351563,0.1640625 -0.0351563,0.2578125 -0.0351563,0.3398438 0,0.70312499 0.4453125,1.14843749 1.03125,1.14843749 0.8671876,0 1.7929688,-0.94921875 1.7929693,-1.98046829 z M 2.7304063,-2.2018828 c 0,0.28125 -0.1523438,0.9960937 -0.3632813,1.40624999 -0.1757812,0.33984375 -0.515625,0.66796875 -0.8789062,0.66796875 -0.3398438,0 -0.5273438,-0.29296875 -0.5273438,-0.703125 0,-0.25781254 0.0585938,-0.50390624 0.2578125,-1.28906254 0.035156,-0.1289062 0.035156,-0.140625 0.1640625,-0.2929687 0.2695313,-0.3164063 0.5859375,-0.46875 0.8320313,-0.46875 0.2695312,0 0.515625,0.2109375 0.515625,0.6796875 z m 0,0"
         style="fill:#000000;fill-opacity:1;fill-rule:nonzero;stroke:none" />
      <path
         id="path8"
         d="m 15.058531,-6.8923125 c 0,-0.1992187 -0.1875,-0.1992187 -0.328125,-0.1992187 H 8.7655625 c -0.140625,0 -0.328125,0 -0.328125,0.1992187 0,0.1992188 0.1875,0.1992188 0.3398438,0.1992188 h 5.9414067 c 0.152343,0 0.339843,0 0.339843,-0.1992188 z m 0,1.9335938 c 0,-0.1992188 -0.1875,-0.1992188 -0.339843,-0.1992188 H 8.7772813 c -0.1523438,0 -0.3398438,0 -0.3398438,0.1992188 0,0.1992187 0.1875,0.1992187 0.328125,0.1992187 h 5.9648435 c 0.140625,0 0.328125,0 0.328125,-0.1992187 z m 0,0"
         style="fill:#000000;fill-opacity:1;fill-rule:nonzero;stroke:none" />
      <path
         id="path9"
         d="m 24.462828,-10.627664 c 0,-0.480469 -0.503906,-0.832031 -1.101562,-0.832031 -0.949219,0 -1.335938,0.960937 -1.5,1.7226559 -0.117188,0.5507813 -0.480469,3.3632813 -0.574219,4.5585938 l -0.1875,2.484375 c -0.128906,1.6289062 -0.480469,2.08593749 -1.054688,2.08593749 -0.128906,0 -0.421875,-0.0351563 -0.632812,-0.2109375 0.28125,-0.046875 0.363281,-0.26953129 0.363281,-0.41015629 0,-0.2929687 -0.222656,-0.421875 -0.410156,-0.421875 -0.199219,0 -0.410156,0.1289063 -0.410156,0.4335938 0,0.48046874 0.492187,0.82031249 1.089843,0.82031249 0.949219,0 1.429688,-0.86718749 1.640625,-1.75781249 0.128907,-0.515625 0.492188,-3.421875 0.574219,-4.5234375 l 0.1875,-2.484375 c 0.140625,-1.8281247 0.480469,-2.0742187 0.925781,-2.0742187 0.105469,0 0.410157,0.01172 0.632813,0.210937 -0.292969,0.03516 -0.375,0.269532 -0.375,0.398438 0,0.292969 0.222656,0.421875 0.410156,0.421875 0.199219,0 0.421875,-0.128906 0.421875,-0.421875 z m 0,0"
         style="fill:#000000;fill-opacity:1;fill-rule:nonzero;stroke:none" />
      <path
         id="path10"
         d="m 32.428648,-10.510477 c 0,-0.808593 -0.597656,-1.558593 -1.464843,-1.558593 -0.996094,0 -1.617188,0.785156 -1.910157,1.160156 -0.339843,-0.421875 -0.949218,-1.160156 -1.980468,-1.160156 -0.878907,0 -1.5,0.738281 -1.5,1.570312 0,0.8203127 0.609375,1.5703127 1.464843,1.5703127 0.996094,0 1.617188,-0.796875 1.910157,-1.1601567 0.339843,0.4101567 0.949218,1.1601567 1.980468,1.1601567 0.878907,0 1.5,-0.7382813 1.5,-1.5820317 z m -0.199218,0 c 0,0.7031254 -0.574219,1.1953129 -1.183594,1.1953129 -0.644531,0 -1.113281,-0.5507812 -1.757813,-1.3359379 0.421875,-0.679687 1.042969,-1.160156 1.734375,-1.160156 0.714844,0 1.207032,0.632813 1.207032,1.300781 z m -3.515625,0.164063 c -0.421875,0.6679687 -1.042969,1.1484374 -1.722657,1.1484374 -0.726562,0 -1.21875,-0.6210937 -1.21875,-1.3007814 0,-0.691406 0.574219,-1.195312 1.183594,-1.195312 0.65625,0 1.113281,0.5625 1.757813,1.347656 z m 0,0"
         style="fill:#000000;fill-opacity:1;fill-rule:nonzero;stroke:none" />
      <path
         id="path11"
         d="m 26.69232,-2.1198516 c 0,-0.7617187 -0.09375,-1.3125 -0.410156,-1.8046875 -0.222656,-0.3164062 -0.644531,-0.5976562 -1.207031,-0.5976562 -1.617188,0 -1.617188,1.8984375 -1.617188,2.4023437 0,0.5039063 0,2.36718754 1.617188,2.36718754 1.617187,0 1.617187,-1.86328124 1.617187,-2.36718754 z m -0.632812,-0.09375 c 0,0.515625 0,1.0429688 -0.09375,1.47656254 -0.140625,0.6328125 -0.609375,0.78515625 -0.890625,0.78515625 -0.316406,0 -0.75,-0.1875 -0.890625,-0.76171875 -0.09375,-0.41015624 -0.09375,-0.98437504 -0.09375,-1.50000004 0,-0.5039062 0,-1.03125 0.105469,-1.4179687 0.152343,-0.5507813 0.597656,-0.6914063 0.878906,-0.6914063 0.375,0 0.738281,0.2226563 0.867187,0.6328125 0.105469,0.375 0.117188,0.8789063 0.117188,1.4765625 z m 0,0"
         style="fill:#000000;fill-opacity:1;fill-rule:nonzero;stroke:none" />
      <path
         id="path12"
         d="m 43.631773,-10.812234 c 0,-0.105469 -0.08203,-0.199219 -0.199218,-0.199219 -0.117188,0 -0.152344,0.07031 -0.210938,0.1875 l -4.207031,8.7304686 -1.78125,-3.9023437 c -0.03516,-0.082031 -0.05859,-0.140625 -0.128906,-0.140625 -0.02344,0 -0.04687,0 -0.140625,0.070312 l -0.984375,0.75 c -0.105469,0.09375 -0.117188,0.1054687 -0.117188,0.140625 0,0.070312 0.03516,0.1054687 0.105469,0.1054687 0.02344,0 0.04687,0 0.128906,-0.070312 l 0.527344,-0.3867187 1.96875,4.3242187 c 0.05859,0.140625 0.08203,0.1523438 0.1875,0.1523438 0.164062,0 0.175781,-0.035156 0.246094,-0.1875 l 4.546875,-9.4101564 c 0.04687,-0.105469 0.05859,-0.117187 0.05859,-0.164062 z m 0,0"
         style="fill:#000000;fill-opacity:1;fill-rule:nonzero;stroke:none" />
    </g>
    <path
       id="path13"
       d="M 0,0 H 5.694"
       style="fill:none;stroke:#000000;stroke-width:0.398;stroke-linecap:butt;stroke-linejoin:miter;stroke-miterlimit:10;stroke-dasharray:none;stroke-opacity:1"
       transform="matrix(1.3333333,0,0,-1.3333333,482.19733,171.18133)" />
    <g
       id="g13"
       transform="matrix(1.3333333,0,0,1.3333333,482.19733,181.01467)">
      <path
         id="path14"
         d="m 4.9467266,-1.4289688 c 0,-0.09375 -0.09375,-0.09375 -0.1289063,-0.09375 -0.082031,0 -0.1054687,0.035156 -0.1289062,0.1054688 -0.328125,1.06640625 -0.9960938,1.3125 -1.3242188,1.3125 -0.3867187,0 -0.5390625,-0.328125 -0.5390625,-0.65625 0,-0.22265625 0.058594,-0.4453125 0.1640625,-0.8789063 L 3.3295391,-3.011 c 0.058594,-0.2578125 0.2929687,-1.171875 0.984375,-1.171875 0.046875,0 0.2929687,0 0.5039062,0.1289062 -0.28125,0.046875 -0.4804687,0.3046875 -0.4804687,0.5390625 0,0.1640625 0.1054687,0.3515625 0.375,0.3515625 0.2226562,0 0.5390625,-0.1875 0.5390625,-0.5859375 0,-0.515625 -0.5859375,-0.65625 -0.9257813,-0.65625 -0.5742187,0 -0.9257812,0.5273438 -1.0429687,0.7617188 -0.2578125,-0.65625 -0.7851563,-0.7617188 -1.078125,-0.7617188 -1.0429688,0 -1.60546879,1.2890625 -1.60546879,1.5351563 0,0.1054687 0.1171875,0.1054687 0.1171875,0.1054687 0.0820313,0 0.1171875,-0.023437 0.12890625,-0.1171875 C 1.1850078,-3.9367813 1.8412578,-4.182875 2.1811016,-4.182875 c 0.1875,0 0.5390625,0.09375 0.5390625,0.6679687 0,0.3046875 -0.1640625,0.9726563 -0.5390625,2.3671875 C 2.0287578,-0.526625 1.6771953,-0.10475 1.2318828,-0.10475 c -0.058594,0 -0.28124999,0 -0.49218749,-0.12890625 0.24609375,-0.0585938 0.46874999,-0.26953125 0.46874999,-0.5390625 0,-0.26953125 -0.22265624,-0.35156255 -0.37499999,-0.35156255 -0.29296875,0 -0.5390625,0.25781255 -0.5390625,0.5742188 0,0.45703125 0.4921875,0.65625 0.93749999,0.65625 0.65625,0 1.0078125,-0.69140625 1.0429688,-0.75 0.1171875,0.36328125 0.4804687,0.75 1.078125,0.75 1.0195312,0 1.59375,-1.2773438 1.59375,-1.5351563 z m 0,0"
         style="fill:#000000;fill-opacity:1;fill-rule:nonzero;stroke:none" />
      <path
         id="path15"
         d="m 10.943797,7.1875e-4 v -0.3046875 c -0.703125,0 -0.773438,-0.0703125 -0.773438,-0.5625 V -6.9133438 L 8.7289531,-6.807875 v 0.3164062 c 0.703125,0 0.7851563,0.070312 0.7851563,0.5507813 v 2.15625 c -0.2929688,-0.3632813 -0.7265625,-0.6210938 -1.265625,-0.6210938 -1.171875,0 -2.2148438,0.984375 -2.2148438,2.2617188 0,1.265625 0.9726563,2.25 2.109375,2.25 0.6445313,0 1.0898438,-0.33984375 1.3359375,-0.65625 v 0.65625 z M 9.4789531,-1.1711563 c 0,0.1757813 0,0.1992188 -0.1054687,0.3632813 -0.3046875,0.48046875 -0.75,0.703125 -1.1835938,0.703125 -0.4453125,0 -0.796875,-0.2578125 -1.0429687,-0.64453125 C 6.8891094,-1.1594375 6.8539531,-1.7219375 6.8539531,-2.1320938 c 0,-0.3632812 0.023437,-0.9609375 0.3164063,-1.4179687 0.2109375,-0.3046875 0.5859375,-0.6328125 1.125,-0.6328125 0.3515625,0 0.7617187,0.1523437 1.078125,0.5976562 0.1054687,0.1640625 0.1054687,0.1875 0.1054687,0.3632813 z m 0,0"
         style="fill:#000000;fill-opacity:1;fill-rule:nonzero;stroke:none" />
      <path
         id="path16"
         d="m 16.173289,-1.4289688 c 0,-0.09375 -0.09375,-0.09375 -0.128906,-0.09375 -0.08203,0 -0.105469,0.035156 -0.128906,0.1054688 -0.328125,1.06640625 -0.996094,1.3125 -1.324219,1.3125 -0.386719,0 -0.539063,-0.328125 -0.539063,-0.65625 0,-0.22265625 0.05859,-0.4453125 0.164063,-0.8789063 L 14.556102,-3.011 c 0.05859,-0.2578125 0.292968,-1.171875 0.984375,-1.171875 0.04687,0 0.292968,0 0.503906,0.1289062 -0.28125,0.046875 -0.480469,0.3046875 -0.480469,0.5390625 0,0.1640625 0.105469,0.3515625 0.375,0.3515625 0.222656,0 0.539063,-0.1875 0.539063,-0.5859375 0,-0.515625 -0.585938,-0.65625 -0.925782,-0.65625 -0.574218,0 -0.925781,0.5273438 -1.042968,0.7617188 -0.257813,-0.65625 -0.785157,-0.7617188 -1.078125,-0.7617188 -1.042969,0 -1.605469,1.2890625 -1.605469,1.5351563 0,0.1054687 0.117187,0.1054687 0.117187,0.1054687 0.08203,0 0.117188,-0.023437 0.128907,-0.1171875 0.339843,-1.0546875 0.996093,-1.3007812 1.335937,-1.3007812 0.1875,0 0.539063,0.09375 0.539063,0.6679687 0,0.3046875 -0.164063,0.9726563 -0.539063,2.3671875 -0.152344,0.6210938 -0.503906,1.0429688 -0.949219,1.0429688 -0.05859,0 -0.28125,0 -0.492187,-0.12890625 0.246094,-0.0585938 0.46875,-0.26953125 0.46875,-0.5390625 0,-0.26953125 -0.222656,-0.35156255 -0.375,-0.35156255 -0.292969,0 -0.539063,0.25781255 -0.539063,0.5742188 0,0.45703125 0.492188,0.65625 0.9375,0.65625 0.65625,0 1.007813,-0.69140625 1.042969,-0.75 0.117188,0.36328125 0.480469,0.75 1.078125,0.75 1.019531,0 1.59375,-1.2773438 1.59375,-1.5351563 z m 0,0"
         style="fill:#000000;fill-opacity:1;fill-rule:nonzero;stroke:none" />
      <path
         id="path17"
         d="m -63.309133,615.69213 v -0.30469 h -0.316406 c -0.902344,0 -0.925781,-0.11719 -0.925781,-0.48047 v -5.58984 c 0,-0.23438 0,-0.25782 -0.234375,-0.25782 -0.609375,0.63282 -1.488282,0.63282 -1.804688,0.63282 v 0.3164 c 0.199219,0 0.785156,0 1.300781,-0.25781 v 5.15625 c 0,0.35156 -0.03516,0.48047 -0.925781,0.48047 h -0.316406 v 0.30469 c 0.351562,-0.0352 1.207031,-0.0352 1.605469,-0.0352 0.398437,0 1.265625,0 1.617187,0.0352 z m 0,0"
         style="fill:#000000;fill-opacity:1;fill-rule:nonzero;stroke:none" />
    </g>
  </g>
</svg>
